…
```
## Joining, by = "sample_id"
```

```r
full_file_manifest
```

```
## # A tibble: 2,341 × 14
##    ihmp_sample_id sample_id   file_id md5     size urls  subject_id subject_uuid
##    <chr>          <chr>       <chr>   <chr>  <dbl> <chr>      <dbl> <chr>       
##  1 CSM5FZ3N_P     cad5930efe… 599427… 0081… 1.58e9 http…       3001 1419f08f554…
##  2 CSM5FZ3R_P     5994274eae… 599427… 93ee… 2.61e9 http…       3001 1419f08f554…
##  3 CSM5FZ3T_P     cad5930efe… 599427… 1331… 1.72e9 http…       3002 1419f08f554…
##  4 CSM5FZ3V_P     5994274eae… 599427… 291b… 2.85e9 http…       3001 1419f08f554…
##  5 CSM5FZ3X_P     5994274eae… 599427… 8bf2… 2.24e9 http…       3002 1419f08f554…
##  6 CSM5FZ3Z_P     5994274eae… 599427… c146… 3.82e9 http…       3002 1419f08f554…
##  7 CSM5FZ42_P     5994274eae… 599427… 6659… 5.11e9 http…       3002 1419f08f554…
##  8 CSM5FZ44_P     cad5930efe… 599427… bdde… 3.01e9 http…       3002 1419f08f554…
##  9 CSM5FZ46_P     5994274eae… 599427… 4632… 2.45e9 http…       3002 1419f08f554…
## 10 CSM5FZ4A_P     cad5930efe… 599427… 9044… 2.96e9 http…       3004 1419f08f554…
## # … with 2,331 more rows, and 6 more variables: sample_body_site <chr>,
## #   visit_number <dbl>, subject_gender <chr>, subject_race <chr>,
## #   study_full_name <chr>, project_name <chr>
```
…
```r
samp_id_mani %>% 
  unique()
```

```
## # A tibble: 1,613 × 9
##    sample_id               subject_id subject_uuid sample_body_site visit_number
##    <chr>                        <dbl> <chr>        <chr>                   <dbl>
##  1 1419f08f554e0c93f3b62f…       2008 1419f08f554… feces                      23
##  2 d39c1941c8f6e8b0f6ead5…       2008 1419f08f554… feces                      14
##  3 1419f08f554e0c93f3b62f…       2008 1419f08f554… feces                       6
##  4 d39c1941c8f6e8b0f6ead5…       2008 1419f08f554… feces                      15
##  5 d39c1941c8f6e8b0f6ead5…       2008 1419f08f554… feces                      21
##  6 d39c1941c8f6e8b0f6ead5…       2008 1419f08f554… feces                      12
##  7 d39c1941c8f6e8b0f6ead5…       2008 1419f08f554… feces                      18
##  8 1419f08f554e0c93f3b62f…       2008 1419f08f554… feces                      28
##  9 1419f08f554e0c93f3b62f…       2008 1419f08f554… feces                      11
## 10 1419f08f554e0c93f3b62f…       2008 1419f08f554… feces                      22
## # … with 1,603 more rows, and 4 more variables: subject_gender <chr>,
## #   subject_race <chr>, study_full_name <chr>, project_name <chr>
```
…
```
##  [1] "file_id"          "md5"              "size"             "urls"            
##  [5] "sample_id"        "subject_id"       "subject_uuid"     "sample_body_site"
##  [9] "visit_number"     "subject_gender"   "subject_race"     "study_full_name" 
## [13] "project_name"
```

```r
full_file_manifest %>%
  relocate(sample_id) %>%
  arrange(sample_id, file_id)
```

```
## # A tibble: 2,341 × 13
##    sample_id file_id md5     size urls  subject_id subject_uuid sample_body_site
##    <chr>     <chr>   <chr>  <dbl> <chr>      <dbl> <chr>        <chr>           
##  1 1419f08f… 1419f0… 6c83… 1.05e9 http…       3001 1419f08f554… feces           
##  2 1419f08f… 56bda9… 1eb2… 3.60e6 http…       3001 1419f08f554… feces           
##  3 1419f08f… 1419f0… 5334… 1.32e9 http…       3001 1419f08f554… feces           
##  4 1419f08f… 1419f0… e8cb… 9.81e8 http…       3001 1419f08f554… feces           
##  5 1419f08f… 1419f0… b5d6… 1.03e9 http…       3001 1419f08f554… feces           
##  6 1419f08f… 56bda9… ce38… 8.50e7 http…       3001 1419f08f554… feces           
##  7 1419f08f… 1419f0… f652… 2.21e8 http…       3001 1419f08f554… feces           
##  8 1419f08f… 1419f0… 2df8… 1.56e9 http…       3001 1419f08f554… feces           
##  9 1419f08f… 1419f0… 3f87… 1.49e9 http…       3001 1419f08f554… feces           
## 10 1419f08f… 56bda9… 194c… 1.34e8 http…       3001 1419f08f554… feces           
## # … with 2,331 more rows, and 5 more variables: visit_number <dbl>,
## #   subject_gender <chr>, subject_race <chr>, study_full_name <chr>,
## #   project_name <chr>
```
…
```
## Joining, by = "sample_id"
```

```r
full_file_manifest
```

```
## # A tibble: 2,341 × 13
##    sample_id file_id md5     size urls  subject_id subject_uuid sample_body_site
##    <chr>     <chr>   <chr>  <dbl> <chr>      <dbl> <chr>        <chr>           
##  1 1419f08f… 1419f0… 6c83… 1.05e9 http…       3001 1419f08f554… feces           
##  2 1419f08f… 56bda9… 1eb2… 3.60e6 http…       3001 1419f08f554… feces           
##  3 1419f08f… 1419f0… 5334… 1.32e9 http…       3001 1419f08f554… feces           
##  4 1419f08f… 1419f0… e8cb… 9.81e8 http…       3001 1419f08f554… feces           
##  5 1419f08f… 1419f0… b5d6… 1.03e9 http…       3001 1419f08f554… feces           
##  6 1419f08f… 56bda9… ce38… 8.50e7 http…       3001 1419f08f554… feces           
##  7 1419f08f… 1419f0… f652… 2.21e8 http…       3001 1419f08f554… feces           
##  8 1419f08f… 1419f0… 2df8… 1.56e9 http…       3001 1419f08f554… feces           
##  9 1419f08f… 1419f0… 3f87… 1.49e9 http…       3001 1419f08f554… feces           
## 10 1419f08f… 56bda9… 194c… 1.34e8 http…       3001 1419f08f554… feces           
## # … with 2,331 more rows, and 5 more variables: visit_number <dbl>,
## #   subject_gender <chr>, subject_race <chr>, study_full_name <chr>,
## #   project_name <chr>
```
…
```
## Joining, by = "sample_id"
```

```r
full_file_manifest
```

```
## # A tibble: 2,341 × 13
##    sample_id file_id md5     size urls  subject_id subject_uuid sample_body_site
##    <chr>     <chr>   <chr>  <dbl> <chr>      <dbl> <chr>        <chr>           
##  1 1419f08f… 1419f0… 6c83… 1.05e9 http…       3001 1419f08f554… feces           
##  2 1419f08f… 56bda9… 1eb2… 3.60e6 http…       3001 1419f08f554… feces           
##  3 1419f08f… 1419f0… 5334… 1.32e9 http…       3001 1419f08f554… feces           
##  4 1419f08f… 1419f0… e8cb… 9.81e8 http…       3001 1419f08f554… feces           
##  5 1419f08f… 1419f0… b5d6… 1.03e9 http…       3001 1419f08f554… feces           
##  6 1419f08f… 56bda9… ce38… 8.50e7 http…       3001 1419f08f554… feces           
##  7 1419f08f… 1419f0… f652… 2.21e8 http…       3001 1419f08f554… feces           
##  8 1419f08f… 1419f0… 2df8… 1.56e9 http…       3001 1419f08f554… feces           
##  9 1419f08f… 1419f0… 3f87… 1.49e9 http…       3001 1419f08f554… feces           
## 10 1419f08f… 56bda9… 194c… 1.34e8 http…       3001 1419f08f554… feces           
## # … with 2,331 more rows, and 5 more variables: visit_number <dbl>,
## #   subject_gender <chr>, subject_race <chr>, study_full_name <chr>,
## #   project_name <chr>
```
…
```r
full_file_manifest <- full_file_manifest %>%
  separate(urls, into = c(NA, "ihmp_sample_id", NA), sep = "/raw/|.tar|.fastq.gz", remove = F) %>% 
  relocate(ihmp_sample_id)
full_file_manifest
```

```
## # A tibble: 2,341 × 14
##    ihmp_sample_id sample_id   file_id md5     size urls  subject_id subject_uuid
##    <chr>          <chr>       <chr>   <chr>  <dbl> <chr>      <dbl> <chr>       
##  1 CSM5MCXD       1419f08f55… 1419f0… 6c83… 1.05e9 http…       3001 1419f08f554…
##  2 CSM5MCXD       1419f08f55… 56bda9… 1eb2… 3.60e6 http…       3001 1419f08f554…
##  3 CSM5MCYS       1419f08f55… 1419f0… 5334… 1.32e9 http…       3001 1419f08f554…
##  4 CSM67U9J       1419f08f55… 1419f0… e8cb… 9.81e8 http…       3001 1419f08f554…
##  5 CSM67UA2       1419f08f55… 1419f0… b5d6… 1.03e9 http…       3001 1419f08f554…
##  6 CSM67UA2       1419f08f55… 56bda9… ce38… 8.50e7 http…       3001 1419f08f554…
##  7 CSM67UGC       1419f08f55… 1419f0… f652… 2.21e8 http…       3001 1419f08f554…
##  8 CSM79HG5       1419f08f55… 1419f0… 2df8… 1.56e9 http…       3001 1419f08f554…
##  9 CSM79HGP       1419f08f55… 1419f0… 3f87… 1.49e9 http…       3001 1419f08f554…
## 10 CSM79HGP       1419f08f55… 56bda9… 194c… 1.34e8 http…       3001 1419f08f554…
## # … with 2,331 more rows, and 6 more variables: sample_body_site <chr>,
## #   visit_number <dbl>, subject_gender <chr>, subject_race <chr>,
## #   study_full_name <chr>, project_name <chr>
```
…
```
## Joining, by = "sample_id"
```

```r
full_file_manifest
```

```
## # A tibble: 2,341 × 14
##    ihmp_sample_id sample_id   file_id md5     size urls  subject_id subject_uuid
##    <chr>          <chr>       <chr>   <chr>  <dbl> <chr>      <dbl> <chr>       
##  1 CSM5FZ3N_P     cad5930efe… 599427… 0081… 1.58e9 http…       3001 1419f08f554…
##  2 CSM5FZ3R_P     5994274eae… 599427… 93ee… 2.61e9 http…       3001 1419f08f554…
##  3 CSM5FZ3T_P     cad5930efe… 599427… 1331… 1.72e9 http…       3002 1419f08f554…
##  4 CSM5FZ3V_P     5994274eae… 599427… 291b… 2.85e9 http…       3001 1419f08f554…
##  5 CSM5FZ3X_P     5994274eae… 599427… 8bf2… 2.24e9 http…       3002 1419f08f554…
##  6 CSM5FZ3Z_P     5994274eae… 599427… c146… 3.82e9 http…       3002 1419f08f554…
##  7 CSM5FZ42_P     5994274eae… 599427… 6659… 5.11e9 http…       3002 1419f08f554…
##  8 CSM5FZ44_P     cad5930efe… 599427… bdde… 3.01e9 http…       3002 1419f08f554…
##  9 CSM5FZ46_P     5994274eae… 599427… 4632… 2.45e9 http…       3002 1419f08f554…
## 10 CSM5FZ4A_P     cad5930efe… 599427… 9044… 2.96e9 http…       3004 1419f08f554…
## # … with 2,331 more rows, and 6 more variables: sample_body_site <chr>,
## #   visit_number <dbl>, subject_gender <chr>, subject_race <chr>,
## #   study_full_name <chr>, project_name <chr>
```
…
```
## Warning: Expected 3 pieces. Missing pieces filled with `NA` in 78 rows [223,
## 224, 225, 226, 227, 228, 229, 230, 231, 232, 233, 234, 235, 236, 237, 238, 239,
## 240, 241, 242, ...].
```

```r
sra_mani
```

```
## # A tibble: 378 × 18
##    ihmp_sample_id experiment_accession experiment_title organism_name instrument
##    <chr>          <chr>                <chr>            <chr>         <chr>     
##  1 H4020C2        SRX3139489           fecal sample fr… human gut me… Illumina …
##  2 C3011C6        SRX3139488           fecal sample fr… human gut me… Illumina …
##  3 H4022C1        SRX3139487           fecal sample fr… human gut me… Illumina …
##  4 C3017C3        SRX3139486           fecal sample fr… human gut me… Illumina …
##  5 C3011C5        SRX3139485           fecal sample fr… human gut me… Illumina …
##  6 C3017C1        SRX3139484           fecal sample fr… human gut me… Illumina …
##  7 C3013C5        SRX3139483           fecal sample fr… human gut me… Illumina …
##  8 C3011C7        SRX3139482           fecal sample fr… human gut me… Illumina …
##  9 C3010C4        SRX3139481           fecal sample fr… human gut me… Illumina …
## 10 C3011C2        SRX3139480           fecal sample fr… human gut me… Illumina …
## # … with 368 more rows, and 13 more variables: submitter <chr>,
## #   study_accession <chr>, study_title <chr>, sample_accession <chr>,
## #   sample_title <lgl>, total_size_mb <dbl>, total_ru_ns <dbl>,
## #   total_spots <dbl>, total_bases <dbl>, library_name <chr>,
## #   library_strategy <chr>, library_source <chr>, library_selection <chr>
```


```r
#ihmp_sample_id, experiment_accession, study_accession, sample_accession, library_name
#names(df)

trim_df <- df %>% select(ihmp_sample_id, participant_id, data_type, week_num, interval_days, project) %>% arrange(participant_id, data_type, week_num)

trim_sra <- sra_mani %>% select(ihmp_sample_id, experiment_accession, study_accession, sample_accession, library_name) %>% arrange(ihmp_sample_id)

trim_df
```

```
## # A tibble: 3,669 × 6
##    ihmp_sample_id participant_id data_type    week_num interval_days project
##    <chr>          <chr>          <chr>           <dbl>         <dbl> <chr>  
##  1 CSM5FZ3N_P     C3001          metagenomics        0             0 G79889 
##  2 CSM5FZ3R_P     C3001          metagenomics        2            14 G79894 
##  3 CSM5YRY7_P     C3001          metagenomics        4            18 G79903 
##  4 CSM5FZ3V_P     C3001          metagenomics        6            13 G79913 
##  5 CSM5FZ4C_P     C3001          metagenomics        8            11 G79926 
##  6 CSM5MCVD_P     C3001          metagenomics       12            20 G79969 
##  7 CSM5MCVF_P     C3001          metagenomics       14            15 G80015 
##  8 CSM5MCVV_P     C3001          metagenomics       16            15 G79979 
##  9 CSM5MCWI_P     C3001          metagenomics       18            12 G80050 
## 10 CSM5MCXD       C3001          metagenomics       20            14 G110156
## # … with 3,659 more rows
```

```r
trim_sra
```

```
## # A tibble: 378 × 5
##    ihmp_sample_id experiment_acce… study_accession sample_accession library_name
##    <chr>          <chr>            <chr>           <chr>            <chr>       
##  1 C3001C1        SRX3139291       SRP115812       SRS2472163       G79889_MGX  
##  2 C3001C10       SRX3106607       SRP115812       SRS2441858       G80053_MGX  
##  3 C3001C10_MTX   SRX3106690       SRP115812       SRS2441941       G89370_MTX  
##  4 C3001C2        SRX3139294       SRP115812       SRS2472166       G79894_MGX  
##  5 C3001C3        SRX3139288       SRP115812       SRS2472160       G79903_MGX  
##  6 C3001C4        SRX3139289       SRP115812       SRS2472161       G79913_MGX  
##  7 C3001C5        SRX3106633       SRP115812       SRS2441884       G79931_MGX  
##  8 C3001C5_MTX    SRX3106735       SRP115812       SRS2441986       G89308_MTX  
##  9 C3001C7        SRX3139397       SRP115812       SRS2472234       G79969_MGX  
## 10 C3001C8        SRX3139360       SRP115812       SRS2472871       G80015_MGX  
## # … with 368 more rows
```
…
