…
#### are abx-drug columns linked?
If the `antibiotics` col is "Yes", does the type show up in the drug columns?


this info makes it appear that they do not..

```r
viral_metadata%>%
  filter(antibiotics == "Yes")%>%
  select(external_id, participant_id, week_num, antibiotics, lomotil, dipentum_olsalazine, cipro_ciprofloxin)
```

```
## # A tibble: 69 × 7
##    external_id participant_id week_num antibiotics lomotil dipentum_olsalazine
##    <chr>       <chr>             <dbl> <chr>       <chr>   <chr>              
##  1 CSM79HJW    C3002                36 Yes         <NA>    <NA>               
##  2 CSM67UBZ    C3003                26 Yes         <NA>    <NA>               
##  3 CSM5MCW6    C3008                 8 Yes         <NA>    <NA>               
##  4 CSM5MCZ3    C3008                16 Yes         <NA>    <NA>               
##  5 CSM79HKT    C3008                32 Yes         <NA>    <NA>               
##  6 CSM79HQF    C3008                42 Yes         <NA>    <NA>               
##  7 CSM79HKB    C3010                26 Yes         <NA>    <NA>               
##  8 CSM79HIX    C3016                20 Yes         <NA>    <NA>               
##  9 CSM79HIZ    C3016                22 Yes         <NA>    <NA>               
## 10 CSM7KOKB    C3016                32 Yes         <NA>    <NA>               
## # … with 59 more rows, and 1 more variable: cipro_ciprofloxin <chr>
```

```r
mgx_metadata%>%
  filter(antibiotics == "Yes")%>%
  select(external_id, participant_id, week_num, antibiotics, lomotil, dipentum_olsalazine, cipro_ciprofloxin)
```

```
## # A tibble: 166 × 7
##    external_id participant_id week_num antibiotics lomotil dipentum_olsalazine
##    <chr>       <chr>             <dbl> <chr>       <chr>   <chr>              
##  1 CSM79HJW    C3002                36 Yes         <NA>    <NA>               
##  2 CSM5FZ4E_P  C3003                 2 Yes         <NA>    <NA>               
##  3 CSM5FZ4K_P  C3003                 7 Yes         <NA>    <NA>               
##  4 CSM67UBZ    C3003                26 Yes         <NA>    <NA>               
##  5 CSM5MCU4_P  C3008                 0 Yes         <NA>    <NA>               
##  6 CSM5MCVZ_P  C3008                 4 Yes         <NA>    <NA>               
##  7 CSM5MCW4_P  C3008                 7 Yes         <NA>    <NA>               
##  8 CSM5MCW6    C3008                 8 Yes         <NA>    <NA>               
##  9 CSM5MCYW    C3008                10 Yes         <NA>    <NA>               
## 10 CSM5MCZ3    C3008                16 Yes         <NA>    <NA>               
## # … with 156 more rows, and 1 more variable: cipro_ciprofloxin <chr>
```
…
so we can see that this participant had antibiotics, but it doesnt show up in the drug columns, so I am going to investigate that participant outside of the viral metadata set...

```r
#drug_metadata <- metadata%>%
metadata %>%
  select(external_id, participant_id, data_type, project_specific_id, week_num, antibiotics, 317:385) %>%
  arrange(participant_id, week_num) %>%
  filter(participant_id == "P6037")
```

```
## # A tibble: 25 × 75
##    external_id participant_id data_type    project_specifi… week_num antibiotics
##    <chr>       <chr>          <chr>                   <dbl>    <dbl> <chr>      
##  1 PSM7J4EF    P6037          metagenomics             6037        0 No         
##  2 PSM7J4EF    P6037          metatranscr…             6037        0 No         
##  3 PSMA266I    P6037          metabolomics             6037        3 No         
##  4 PSMA266I    P6037          metagenomics             6037        3 No         
##  5 PSMA266I    P6037          metatranscr…             6037        3 No         
##  6 PSMA266I    P6037          viromics                 6037        3 No         
##  7 PSMA266M    P6037          metagenomics             6037        8 Yes        
##  8 PSMA266M    P6037          metatranscr…             6037        8 Yes        
##  9 PSMA266M    P6037          viromics                 6037        8 Yes        
## 10 PSMA266O    P6037          metagenomics             6037       10 Yes        
## # … with 15 more rows, and 69 more variables: lomotil <chr>,
## #   dipentum_olsalazine <chr>, reason_for_stopping_dipentum <lgl>,
## #   rowasa_enemas_mesalamine_enemas <chr>,
## #   reason_for_stopping_rowasa_enemas <chr>,
## #   canasa_suppositories_mesalamine_suppositories <chr>,
## #   reason_for_stopping_canasa_suppositories <chr>, flagyl_metronidazole <chr>,
## #   reason_for_stopping_flagyl <chr>, cipro_ciprofloxin <chr>, …
```
…
This is the list of viromics *samples* relevant to the study

```r
abx_viromx_metadata <- viral_metadata %>%
    filter(antibiotics=="Yes") %>%
    arrange(participant_id, week_num)

abx_viromx_metadata
```

```
## # A tibble: 69 × 490
##    project      external_id participant_id site_sub_coll data_type week_num
##    <chr>        <chr>       <chr>          <chr>         <chr>        <dbl>
##  1 C3002C19_MVX CSM79HJW    C3002          C3002C19      viromics        36
##  2 C3003C14_MVX CSM67UBZ    C3003          C3003C14      viromics        26
##  3 C3008C5_MVX  CSM5MCW6    C3008          C3008C5       viromics         8
##  4 C3008C9_MVX  CSM5MCZ3    C3008          C3008C9       viromics        16
##  5 C3008C17_MVX CSM79HKT    C3008          C3008C17      viromics        32
##  6 C3008C22_MVX CSM79HQF    C3008          C3008C22      viromics        42
##  7 C3010C13_MVX CSM79HKB    C3010          C3010C13      viromics        26
##  8 C3016C11_MVX CSM79HIX    C3016          C3016C11      viromics        20
##  9 C3016C12_MVX CSM79HIZ    C3016          C3016C12      viromics        22
## 10 C3016C17_MVX CSM7KOKB    C3016          C3016C17      viromics        32
## # … with 59 more rows, and 484 more variables: date_of_receipt <date>,
## #   interval_days <dbl>, visit_num <dbl>, research_project <chr>,
## #   pdo_number <chr>, gssr_i_ds <dbl>, product <chr>, lcset <chr>,
## #   aggregated_lanes <chr>, wr_id <dbl>, number_lanes_in_aggregation <dbl>,
## #   reads_raw <dbl>, reads_filtered <dbl>, reads_qc_fail <dbl>,
## #   reads_human <dbl>, reads_ribosomal <dbl>, reads_viral <dbl>, delta <lgl>,
## #   interval_name <chr>, interval_sequence <dbl>, project_specific_id <dbl>, …
```

This is the list of *participants* relevant to the study

```r
participants <- viral_metadata%>%
    filter(antibiotics=="Yes") %>%
    arrange(participant_id, week_num) %>%
    select(participant_id) %>%
    distinct(participant_id)
participants
```

```
## # A tibble: 34 × 1
##    participant_id
##    <chr>         
##  1 C3002         
##  2 C3003         
##  3 C3008         
##  4 C3010         
##  5 C3016         
##  6 C3017         
##  7 C3027         
##  8 C3031         
##  9 C3034         
## 10 C3037         
## # … with 24 more rows
```
…
```r
pair_samples <- metadata %>% 
  filter(data_type == "metagenomics" | data_type == "viromics") %>% 
  filter(participant_id %in% pair_vec) %>%
  arrange(participant_id, data_type, week_num)
pair_samples
```

```
## # A tibble: 2,299 × 490
##    project external_id participant_id site_sub_coll data_type    week_num
##    <chr>   <chr>       <chr>          <chr>         <chr>           <dbl>
##  1 G79889  CSM5FZ3N_P  C3001          C3001C1       metagenomics        0
##  2 G79894  CSM5FZ3R_P  C3001          C3001C2       metagenomics        2
##  3 G79903  CSM5YRY7_P  C3001          C3001C3       metagenomics        4
##  4 G79913  CSM5FZ3V_P  C3001          C3001C4       metagenomics        6
##  5 G79926  CSM5FZ4C_P  C3001          C3001C5       metagenomics        8
##  6 G79969  CSM5MCVD_P  C3001          C3001C7       metagenomics       12
##  7 G80015  CSM5MCVF_P  C3001          C3001C8       metagenomics       14
##  8 G79979  CSM5MCVV_P  C3001          C3001C9       metagenomics       16
##  9 G80050  CSM5MCWI_P  C3001          C3001C10      metagenomics       18
## 10 G110156 CSM5MCXD    C3001          C3001C11      metagenomics       20
## # … with 2,289 more rows, and 484 more variables: date_of_receipt <date>,
## #   interval_days <dbl>, visit_num <dbl>, research_project <chr>,
## #   pdo_number <chr>, gssr_i_ds <dbl>, product <chr>, lcset <chr>,
## #   aggregated_lanes <chr>, wr_id <dbl>, number_lanes_in_aggregation <dbl>,
## #   reads_raw <dbl>, reads_filtered <dbl>, reads_qc_fail <dbl>,
## #   reads_human <dbl>, reads_ribosomal <dbl>, reads_viral <dbl>, delta <lgl>,
## #   interval_name <chr>, interval_sequence <dbl>, project_specific_id <dbl>, …
```
…
