…
#### are abx-drug columns linked?
If the `antibiotics` col is "Yes", does the type show up in the drug columns?


this info makes it appear that they do not..

```r
viral_metadata%>%
  filter(antibiotics == "Yes")%>%
  select(external_id, participant_id, week_num, antibiotics, lomotil, dipentum_olsalazine, cipro_ciprofloxin)
```

```
## # A tibble: 69 × 7
##    external_id participant_id week_num antibiotics lomotil dipentum_olsalazine
##    <chr>       <chr>             <dbl> <chr>       <chr>   <chr>              
##  1 CSM79HJW    C3002                36 Yes         <NA>    <NA>               
##  2 CSM67UBZ    C3003                26 Yes         <NA>    <NA>               
##  3 CSM5MCW6    C3008                 8 Yes         <NA>    <NA>               
##  4 CSM5MCZ3    C3008                16 Yes         <NA>    <NA>               
##  5 CSM79HKT    C3008                32 Yes         <NA>    <NA>               
##  6 CSM79HQF    C3008                42 Yes         <NA>    <NA>               
##  7 CSM79HKB    C3010                26 Yes         <NA>    <NA>               
##  8 CSM79HIX    C3016                20 Yes         <NA>    <NA>               
##  9 CSM79HIZ    C3016                22 Yes         <NA>    <NA>               
## 10 CSM7KOKB    C3016                32 Yes         <NA>    <NA>               
## # … with 59 more rows, and 1 more variable: cipro_ciprofloxin <chr>
```

```r
mgx_metadata%>%
  filter(antibiotics == "Yes")%>%
  select(external_id, participant_id, week_num, antibiotics, lomotil, dipentum_olsalazine, cipro_ciprofloxin)
```

```
## # A tibble: 166 × 7
##    external_id participant_id week_num antibiotics lomotil dipentum_olsalazine
##    <chr>       <chr>             <dbl> <chr>       <chr>   <chr>              
##  1 CSM79HJW    C3002                36 Yes         <NA>    <NA>               
##  2 CSM5FZ4E_P  C3003                 2 Yes         <NA>    <NA>               
##  3 CSM5FZ4K_P  C3003                 7 Yes         <NA>    <NA>               
##  4 CSM67UBZ    C3003                26 Yes         <NA>    <NA>               
##  5 CSM5MCU4_P  C3008                 0 Yes         <NA>    <NA>               
##  6 CSM5MCVZ_P  C3008                 4 Yes         <NA>    <NA>               
##  7 CSM5MCW4_P  C3008                 7 Yes         <NA>    <NA>               
##  8 CSM5MCW6    C3008                 8 Yes         <NA>    <NA>               
##  9 CSM5MCYW    C3008                10 Yes         <NA>    <NA>               
## 10 CSM5MCZ3    C3008                16 Yes         <NA>    <NA>               
## # … with 156 more rows, and 1 more variable: cipro_ciprofloxin <chr>
```
…
### Relevant Participants: 

This is the list of viromics *samples* relevant to the study

```r
abx_viromx_metadata <- viral_metadata %>%
    filter(antibiotics=="Yes") %>%
    arrange(participant_id, week_num)

abx_viromx_metadata
```

```
## # A tibble: 69 × 490
##    project      external_id participant_id site_sub_coll data_type week_num
##    <chr>        <chr>       <chr>          <chr>         <chr>        <dbl>
##  1 C3002C19_MVX CSM79HJW    C3002          C3002C19      viromics        36
##  2 C3003C14_MVX CSM67UBZ    C3003          C3003C14      viromics        26
##  3 C3008C5_MVX  CSM5MCW6    C3008          C3008C5       viromics         8
##  4 C3008C9_MVX  CSM5MCZ3    C3008          C3008C9       viromics        16
##  5 C3008C17_MVX CSM79HKT    C3008          C3008C17      viromics        32
##  6 C3008C22_MVX CSM79HQF    C3008          C3008C22      viromics        42
##  7 C3010C13_MVX CSM79HKB    C3010          C3010C13      viromics        26
##  8 C3016C11_MVX CSM79HIX    C3016          C3016C11      viromics        20
##  9 C3016C12_MVX CSM79HIZ    C3016          C3016C12      viromics        22
## 10 C3016C17_MVX CSM7KOKB    C3016          C3016C17      viromics        32
## # … with 59 more rows, and 484 more variables: date_of_receipt <date>,
## #   interval_days <dbl>, visit_num <dbl>, research_project <chr>,
## #   pdo_number <chr>, gssr_i_ds <dbl>, product <chr>, lcset <chr>,
## #   aggregated_lanes <chr>, wr_id <dbl>, number_lanes_in_aggregation <dbl>,
## #   reads_raw <dbl>, reads_filtered <dbl>, reads_qc_fail <dbl>,
## #   reads_human <dbl>, reads_ribosomal <dbl>, reads_viral <dbl>, delta <lgl>,
## #   interval_name <chr>, interval_sequence <dbl>, project_specific_id <dbl>, …
```

This is the list of *participants* relevant to the study

```r
participants <- viral_metadata%>%
    filter(antibiotics=="Yes") %>%
    arrange(participant_id, week_num) %>%
    select(participant_id) %>%
    distinct(participant_id)
participants
```

```
## # A tibble: 34 × 1
##    participant_id
##    <chr>         
##  1 C3002         
##  2 C3003         
##  3 C3008         
##  4 C3010         
##  5 C3016         
##  6 C3017         
##  7 C3027         
##  8 C3031         
##  9 C3034         
## 10 C3037         
## # … with 24 more rows
```
…
