…
Conclusions:
* 130 total participants in the study
* 105 participants have both virome and metagenome samples
  + 2299 samples are from those 105 participants
* 34 participants that have viromes samples, and had antibiotics
  + 838 samples are from those 34 participants


```r
# 130 total participants
ibdmdb %>% distinct(participant_id)
```

```
## # A tibble: 130 × 1
##    participant_id
##    <chr>         
##  1 C3001         
##  2 C3002         
##  3 C3003         
##  4 C3004         
##  5 C3005         
##  6 C3006         
##  7 C3007         
##  8 C3008         
##  9 C3009         
## 10 C3010         
## # … with 120 more rows
```
…
### Chunk 4 - Finding existing filenames for viromes in the ibdmdb metadata

After some sleuthing, it was determined that the existing virome filenames, which start with the prefix `SM-`, correspond with the `tube_a_viromics` column

```r
ibdmdb %>% 
  select(contains("tube"))
```

```
## # A tibble: 2,341 × 14
##    tube_a_viromics serum_tube_number_1_receiv… serum_tubes_num… number_of_flora…
##    <chr>           <chr>                       <chr>                       <dbl>
##  1 SM-5QVZE        No                          No                             NA
##  2 SM-5UKLB        No                          No                             NA
##  3 SM-5YSLQ        No                          No                             NA
##  4 SM-61GG5        No                          No                             NA
##  5 SM-64NAA        No                          No                             NA
##  6 SM-6DQVE        No                          No                             NA
##  7 SM-6IEV2        No                          No                             NA
##  8 SM-6MYZ3        No                          No                             NA
##  9 SM-6QU1N        No                          No                             NA
## 10 SM-6UG78        No                          No                             NA
## # … with 2,331 more rows, and 10 more variables:
## #   number_of_tubes_collected_for_epithelial_cell_biopsies <dbl>,
## #   number_of_dna_rna_tubes_collected <dbl>, tube_a_dna_rna <chr>,
## #   tube_a_metabolomics <chr>, tube_a_storage <chr>,
## #   tube_b_fecal_calprotectin <chr>, tube_b_proteomics <chr>,
## #   stool_sample_id_tube_a_et_oh <chr>, sample_id_tube_b_no_preservative <chr>,
## #   tube_a_and_b_received_at_broad <chr>
```
…
```r
subset5 <- ibdmdb %>% 
  filter(participant_id %in% c("C3001", "C3002", "C3003", "C3004", "C3005")) %>%
  mutate(abx_group = case_when(
      participant_id %in% abx_pair_ids_vec~T,
      !(participant_id %in% abx_pair_ids_vec)~F
      )) %>% 
  relocate(external_id, tube_a_viromics, week_num, participant_id, abx_group, data_type) %>% 
  select(1:15)
subset5
```

```
## # A tibble: 109 × 15
##    external_id tube_a_viromics week_num participant_id abx_group data_type   
##    <chr>       <chr>              <dbl> <chr>          <lgl>     <chr>       
##  1 CSM5FZ3N_P  SM-5QVZE               0 C3001          FALSE     metagenomics
##  2 CSM5FZ3R_P  SM-5UKLB               2 C3001          FALSE     metagenomics
##  3 CSM5YRY7_P  SM-5YSLQ               4 C3001          FALSE     metagenomics
##  4 CSM5FZ3V_P  SM-61GG5               6 C3001          FALSE     metagenomics
##  5 CSM5FZ4C_P  SM-64NAA               8 C3001          FALSE     metagenomics
##  6 CSM5MCVD_P  SM-6DQVE              12 C3001          FALSE     metagenomics
##  7 CSM5MCVF_P  SM-6IEV2              14 C3001          FALSE     metagenomics
##  8 CSM5MCVV_P  SM-6MYZ3              16 C3001          FALSE     metagenomics
##  9 CSM5MCWI_P  SM-6QU1N              18 C3001          FALSE     metagenomics
## 10 CSM5MCXD    SM-6UG78              20 C3001          FALSE     metagenomics
## # … with 99 more rows, and 9 more variables: project <chr>,
## #   site_sub_coll <chr>, date_of_receipt <date>, interval_days <dbl>,
## #   visit_num <dbl>, research_project <chr>, pdo_number <chr>, gssr_i_ds <dbl>,
## #   product <chr>
```
…
```
## # A tibble: 2,341 × 17
##    file       zip_type uid   file_prefix file_suffix external_id tube_a_viromics
##    <chr>      <chr>    <chr> <chr>       <chr>       <chr>       <chr>          
##  1 CSM5FZ3N_… P        CSM5… CSM5FZ3N_P  .fastq.gz   CSM5FZ3N_P  SM-5QVZE       
##  2 CSM5FZ3R_… P        CSM5… CSM5FZ3R_P  .fastq.gz   CSM5FZ3R_P  SM-5UKLB       
##  3 CSM5YRY7_… P        CSM5… CSM5YRY7_P  .fastq.gz   CSM5YRY7_P  SM-5YSLQ       
##  4 CSM5FZ3V_… P        CSM5… CSM5FZ3V_P  .fastq.gz   CSM5FZ3V_P  SM-61GG5       
##  5 CSM5FZ4C_… P        CSM5… CSM5FZ4C_P  .fastq.gz   CSM5FZ4C_P  SM-64NAA       
##  6 CSM5MCVD_… P        CSM5… CSM5MCVD_P  .fastq.gz   CSM5MCVD_P  SM-6DQVE       
##  7 CSM5MCVF_… P        CSM5… CSM5MCVF_P  .fastq.gz   CSM5MCVF_P  SM-6IEV2       
##  8 CSM5MCVV_… P        CSM5… CSM5MCVV_P  .fastq.gz   CSM5MCVV_P  SM-6MYZ3       
##  9 CSM5MCWI_… P        CSM5… CSM5MCWI_P  .fastq.gz   CSM5MCWI_P  SM-6QU1N       
## 10 CSM5MCXD.… STD      CSM5… CSM5MCXD    .tar        CSM5MCXD    SM-6UG78       
## # … with 2,331 more rows, and 10 more variables: week_num <dbl>,
## #   participant_id <chr>, abx_group <lgl>, data_type <chr>, project <chr>,
## #   site_sub_coll <chr>, date_of_receipt <date>, interval_days <dbl>,
## #   visit_num <dbl>, research_project <chr>
```
…
#`tube_a_viromics`!!!! 
#which matches the exact virome file name: SM-76C9Y


# looking at these "tube" columns is proabably going to be important later, hard listed below 
#names(
  ibdmdb %>% 
  select(contains("tube")) %>% 
  select(where(is.character)) %>% 
  drop_na()
```

```
## # A tibble: 449 × 11
##    tube_a_viromics serum_tube_number_1_received… serum_tubes_num… tube_a_dna_rna
##    <chr>           <chr>                         <chr>            <chr>         
##  1 SM-5QVZE        No                            No               SM-5QVZC      
##  2 SM-5UKLB        No                            No               SM-5UKL9      
##  3 SM-5YSLQ        No                            No               SM-5YSLO      
##  4 SM-61GG5        No                            No               SM-61GG3      
##  5 SM-64NAA        No                            No               SM-64NA8      
##  6 SM-6DQVE        No                            No               SM-6DQVC      
##  7 SM-6IEV2        No                            No               SM-6IEUZ      
##  8 SM-6MYZ3        No                            No               SM-6MYZ1      
##  9 SM-6QU1N        No                            No               SM-6QU1M      
## 10 SM-6UG78        No                            No               SM-6UG77      
## # … with 439 more rows, and 7 more variables: tube_a_metabolomics <chr>,
## #   tube_a_storage <chr>, tube_b_fecal_calprotectin <chr>,
## #   tube_b_proteomics <chr>, stool_sample_id_tube_a_et_oh <chr>,
## #   sample_id_tube_b_no_preservative <chr>,
## #   tube_a_and_b_received_at_broad <chr>
```
…
### Chunk s3, check that all in ibdmdb are unique external_ids

```r
#1638
ibdmdb %>% 
  filter(data_type=="metagenomics") %>% 
  distinct(external_id)
```

```
## # A tibble: 1,638 × 1
##    external_id
##    <chr>      
##  1 CSM5FZ3N_P 
##  2 CSM5FZ3R_P 
##  3 CSM5YRY7_P 
##  4 CSM5FZ3V_P 
##  5 CSM5FZ4C_P 
##  6 CSM5MCVD_P 
##  7 CSM5MCVF_P 
##  8 CSM5MCVV_P 
##  9 CSM5MCWI_P 
## 10 CSM5MCXD   
## # … with 1,628 more rows
```

```r
#703
ibdmdb %>% 
  filter(data_type=="viromics") %>% 
  distinct(external_id)
```

```
## # A tibble: 703 × 1
##    external_id
##    <chr>      
##  1 CSM5MCXD   
##  2 CSM67UA2   
##  3 CSM79HGP   
##  4 CSM5MCVN   
##  5 CSM67UBH   
##  6 CSM67UBN   
##  7 CSM79HJW   
##  8 CSM5FZ4M   
##  9 CSM5MCWQ   
## 10 CSM67UBZ   
## # … with 693 more rows
```

```r
#2341
ibdmdb
```

```
## # A tibble: 2,341 × 490
##    external_id tube_a_viromics week_num participant_id data_type    project
##    <chr>       <chr>              <dbl> <chr>          <chr>        <chr>  
##  1 CSM5FZ3N_P  SM-5QVZE               0 C3001          metagenomics G79889 
##  2 CSM5FZ3R_P  SM-5UKLB               2 C3001          metagenomics G79894 
##  3 CSM5YRY7_P  SM-5YSLQ               4 C3001          metagenomics G79903 
##  4 CSM5FZ3V_P  SM-61GG5               6 C3001          metagenomics G79913 
##  5 CSM5FZ4C_P  SM-64NAA               8 C3001          metagenomics G79926 
##  6 CSM5MCVD_P  SM-6DQVE              12 C3001          metagenomics G79969 
##  7 CSM5MCVF_P  SM-6IEV2              14 C3001          metagenomics G80015 
##  8 CSM5MCVV_P  SM-6MYZ3              16 C3001          metagenomics G79979 
##  9 CSM5MCWI_P  SM-6QU1N              18 C3001          metagenomics G80050 
## 10 CSM5MCXD    SM-6UG78              20 C3001          metagenomics G110156
## # … with 2,331 more rows, and 484 more variables: site_sub_coll <chr>,
## #   date_of_receipt <date>, interval_days <dbl>, visit_num <dbl>,
## #   research_project <chr>, pdo_number <chr>, gssr_i_ds <dbl>, product <chr>,
## #   lcset <chr>, aggregated_lanes <chr>, wr_id <dbl>,
## #   number_lanes_in_aggregation <dbl>, reads_raw <dbl>, reads_filtered <dbl>,
## #   reads_qc_fail <dbl>, reads_human <dbl>, reads_ribosomal <dbl>,
## #   reads_viral <dbl>, delta <lgl>, interval_name <chr>, …
```

```r
#1656
ibdmdb %>% 
  distinct(external_id)
```

```
## # A tibble: 1,656 × 1
##    external_id
##    <chr>      
##  1 CSM5FZ3N_P 
##  2 CSM5FZ3R_P 
##  3 CSM5YRY7_P 
##  4 CSM5FZ3V_P 
##  5 CSM5FZ4C_P 
##  6 CSM5MCVD_P 
##  7 CSM5MCVF_P 
##  8 CSM5MCVV_P 
##  9 CSM5MCWI_P 
## 10 CSM5MCXD   
## # … with 1,646 more rows
```
…
